<?xml version="1.0" encoding="UTF-8"?>
<svg width="426px" height="160px" viewBox="0 0 426 160" version="1.1" xmlns="http://www.w3.org/2000/svg" xmlns:xlink="http://www.w3.org/1999/xlink">
    <!-- Generator: Sketch 51.3 (57544) - http://www.bohemiancoding.com/sketch -->
    <title>2</title>
    <desc>Created with Sketch.</desc>
    <defs>
        <rect id="path-1" x="0" y="0" width="426" height="160" rx="5"></rect>
        <polygon id="path-3" points="0.610962325 0.108686891 107.74013 0.108686891 107.74013 97.7755968 0.610962325 97.7755968"></polygon>
    </defs>
    <g id="Design" stroke="none" stroke-width="1" fill="none" fill-rule="evenodd">
        <g id="2">
            <g id="Rectangle-17-Copy">
                <mask id="mask-2" fill="white">
                    <use xlink:href="#path-1"></use>
                </mask>
                <use id="Mask" fill="#FBB02D" xlink:href="#path-1"></use>
                <polygon fill="#021827" mask="url(#mask-2)" points="147.258366 160.510302 192.624631 0.12095127 424.535241 0.00358877687 373.679967 160.395717"></polygon>
            </g>
            <text id="5x-MORE-VIEWS" transform="translate(260.323419, 29.377637) rotate(-2.000000) translate(-260.323419, -29.377637) " font-family="HelveticaNeue-Bold, Helvetica Neue" font-size="24" font-weight="bold" letter-spacing="0.8">
                <tspan x="260.035746" y="27.8776369" fill="#FBB02D">5x</tspan>
                <tspan x="287.867746" y="27.8776369" fill="#FFFFFF"> MORE</tspan>
                <tspan x="312.869746" y="55.8776369" font-family="HelveticaNeue, Helvetica Neue" font-size="18" font-weight="normal" fill="#FFFFFF">VIEWS</tspan>
            </text>
            <text id="7-DAYS" transform="translate(266.310449, 74.474728) rotate(-2.000000) translate(-266.310449, -74.474728) " font-family="HelveticaNeue-Bold, Helvetica Neue" font-size="36" font-weight="bold" letter-spacing="1.2" fill="#FBB02D">
                <tspan x="218.650712" y="87.9747277">7 DAYS   </tspan>
            </text>
            <text id="3-DAYS-AT-TOP-RESULT" transform="translate(295.112188, 124.515427) rotate(-2.000000) translate(-295.112188, -124.515427) " font-family="HelveticaNeue-Bold, Helvetica Neue" font-size="18" font-weight="bold" letter-spacing="0.3666667">
                <tspan x="179.680021" y="121.015427" fill="#FBB02D">3 DAYS</tspan>
                <tspan x="244.916021" y="121.015427" font-family="HelveticaNeue, Helvetica Neue" font-weight="normal" fill="#F16F33"> </tspan>
                <tspan x="179.680021" y="143.015427" font-family="HelveticaNeue, Helvetica Neue" font-weight="normal" fill="#FFFFFF">AT TOP RESULTS</tspan>
            </text>
            <text id="ON-MAIN-PAGE" transform="translate(329.214377, 98.878585) rotate(-2.000000) translate(-329.214377, -98.878585) " font-family="HelveticaNeue, Helvetica Neue" font-size="14" font-weight="normal" letter-spacing="0.4666667" fill="#FFFFFF">
                <tspan x="277.762433" y="103.878585">ON MAIN PAGE</tspan>
            </text>
            <g id="Group-3-Copy" transform="translate(88.038483, 70.293958) rotate(82.000000) translate(-88.038483, -70.293958) translate(34.038483, 21.293958)">
                <mask id="mask-4" fill="white">
                    <use xlink:href="#path-3"></use>
                </mask>
                <g id="Clip-2"></g>
                <path d="M76.3581472,2.85551991 L70.9050374,2.51566265 C69.2287732,2.40673403 67.548308,2.42416261 65.876245,2.56794838 L28.5153008,5.64409234 C11.273727,7.06016427 -1.48520557,22.3929555 -0.787812478,39.8868903 L-0.787812478,39.8825331 L-0.787812478,80.5434048 C-0.787812478,86.97455 3.77885191,92.4253376 9.91675133,93.3185523 L47.9036689,98.8477685 C50.7814657,99.2704115 53.6802683,99.5536259 56.583272,99.7104831 L63.3219378,100.072126 C77.8159508,100.843341 90.9781951,91.3578373 95.3390025,77.0054036 L104.825229,45.7472495 C111.047152,25.2512422 97.0404736,4.14523466 76.3581472,2.85551991" id="Fill-1" fill="#021827" mask="url(#mask-4)"></path>
            </g>
            <g id="Group-30-Copy" transform="translate(18.912334, 16.262116) rotate(80.000000) translate(-18.912334, -16.262116) translate(6.412334, -0.737884)" fill="#021827">
                <path d="M21.6139654,12.0284581 C20.3399143,15.0770843 16.3485511,16.1956075 12.7105381,14.5204238 C9.06754824,12.855645 7.15149485,9.03705869 8.4305227,5.98843252 C9.70457378,2.94500879 13.6909602,1.82648554 17.33395,3.49126433 C20.9769398,5.16644799 22.8929932,8.98503435 21.6139654,12.0284581" id="Fill-6" transform="translate(15.022244, 9.009291) rotate(-27.000000) translate(-15.022244, -9.009291) "></path>
                <path d="M10.2266575,29.6296531 C9.39487409,31.487637 6.80500312,32.1750911 4.43725612,31.1531999 C2.06950912,30.1313088 0.826560095,27.7948941 1.65361743,25.9369102 C2.48540081,24.0789263 5.07527178,23.3914723 7.44301878,24.4133634 C9.81076578,25.4352545 11.0537148,27.7716693 10.2266575,29.6296531" id="Fill-8" transform="translate(5.940137, 27.783282) rotate(-27.000000) translate(-5.940137, -27.783282) "></path>
            </g>
            <text transform="translate(98.817348, 64.482894) rotate(-2.000000) translate(-98.817348, -64.482894) " font-family="HelveticaNeue-Bold, Helvetica Neue" font-size="64" font-weight="bold" letter-spacing="2.133333" fill="#FFFFFF">
                <tspan x="84.3173479" y="88.4828941">2</tspan>
            </text>
            <path d="M67.5851412,56.7037987 C67.658963,55.013602 67.9002708,53.4195949 69.416857,52.4258432 C71.7518053,50.898362 73.7468358,51.978217 74.7223374,53.8339353 C76.0207781,53.6185512 78.5361212,52.7730568 80.6045223,56.5851148 C83.0888867,61.1661176 75.5420771,62.5471436 72.8573424,68.9969156 C71.932112,71.8119526 71.4318243,74.7953712 71.541256,77.9693099 C71.6259411,80.3562593 72.7231651,83.7408992 70.7719714,85.6957447 C68.3000208,88.17438 65.8657638,86.7632994 64.9084362,84.4255878 C62.230125,86.0892918 58.5176536,86.7075051 56.4039215,83.8251263 C53.4707487,79.8221298 61.3775486,75.4752663 63.438629,72.9068308 C65.4933835,70.3500025 67.4301473,67.3296435 67.9655915,63.9628686 C68.3903903,61.2872611 67.4728341,59.2236418 67.5851412,56.7037987 Z" id="Fill-4-Copy-2" fill="#FFFFFF"></path>
        </g>
    </g>
</svg>